…
    ##                      Vaccine               Geography Type 
    ##                            0                            0 
    ##                    Geography Survey Year_Influenza Season 
    ##                            0                            0 
    ##               Dimension Type                    Dimension 
    ##                            0                            0 
    ##                     Estimate                  Sample Size 
    ##                           15                            0

``` r
vaxdata1 %>% drop_na(Estimate)
```

    ## # A tibble: 1,809 × 8
    ##    Vaccine   `Geography Type` Geography  Surve…¹ Dimen…² Dimen…³ Estim…⁴ Sampl…⁵
    ##    <chr>     <chr>            <chr>        <int> <chr>   <chr>     <dbl>   <dbl>
    ##  1 Influenza States           Alaska        2012 Age     >=18 Y…    49.2     852
    ##  2 Influenza States           Arkansas      2012 Age     >=18 Y…    46.6     756
    ##  3 Influenza States           Colorado      2012 Age     >=18 Y…    56.1    1170
    ##  4 Influenza States           Delaware      2012 Age     >=18 Y…    41.6     981
    ##  5 Influenza States           Georgia       2012 Age     >=18 Y…    33.6    1007
    ##  6 Influenza States           Hawaii        2012 Age     >=18 Y…    42      1385
    ##  7 Influenza States           Illinois      2012 Age     >=18 Y…    49.1    1037
    ##  8 Influenza States           Maine         2012 Age     >=18 Y…    53       654
    ##  9 Influenza States           Maryland      2012 Age     >=18 Y…    47.9     906
    ## 10 Influenza States           Massachus…    2012 Age     >=18 Y…    66.1    1456
    ## # … with 1,799 more rows, and abbreviated variable names
    ## #   ¹​`Survey Year_Influenza Season`, ²​`Dimension Type`, ³​Dimension, ⁴​Estimate,
    ## #   ⁵​`Sample Size`
    ## # ℹ Use `print(n = ...)` to see more rows
…
